{
    "defaultSeverity": "error",
    "extends": [
        "tslint:recommended"
    ],
    "jsRules": {},
    "rules": {
        "no-any": true,
        "quotemark": [true, "single"],
        "variable-name": [
            "ban-keywords",
            "check-format",
            "allow-leading-underscore",
            "allow-pascal-case"
        ],
        "semicolon": [true, "never"],
        "trailing-comma": [
            true,
            {
                "multiline": "always",
                "singleline": "never",
                "esSpecCompliant": true
            }
        ],
        "max-line-length": [true, 80],
        "ordered-imports": [
            true,
            {
                "import-sources-order": "lowercase-first",
                "named-imports-order": "lowercase-first"
            }
        ],
        "new-parens": false,
        "no-unused-expression": true,
        "no-unused-variable": true        
    },
    "rulesDirectory": []
}
